<svg id="Groupe_11" data-name="Groupe 11" xmlns="http://www.w3.org/2000/svg" xmlns:xlink="http://www.w3.org/1999/xlink" width="45" height="45" viewBox="0 0 40.311 40.311">
  <defs>
    <clipPath id="clip-path">
      <path id="Tracé_9" data-name="Tracé 9" d="M35.272,0H5.039A5.041,5.041,0,0,0,0,5.039V35.272a5.041,5.041,0,0,0,5.039,5.039H35.272a5.041,5.041,0,0,0,5.039-5.039V5.039A5.039,5.039,0,0,0,35.272,0ZM17.636,30.234a2.52,2.52,0,0,1-2.519,2.519H7.558a2.52,2.52,0,0,1-2.519-2.519V7.558A2.519,2.519,0,0,1,7.558,5.039h7.558a2.519,2.519,0,0,1,2.519,2.519ZM35.272,20.156a2.52,2.52,0,0,1-2.519,2.519H25.195a2.52,2.52,0,0,1-2.519-2.519V7.558a2.519,2.519,0,0,1,2.519-2.519h7.558a2.519,2.519,0,0,1,2.519,2.519Z" fill="#fbfbfb"/>
    </clipPath>
  </defs>
  <g id="trello" transform="translate(0 0)">
    <g id="Groupe_10" data-name="Groupe 10">
      <g id="Groupe_9" data-name="Groupe 9">
        <g id="Groupe_de_masques_1" data-name="Groupe de masques 1" clip-path="url(#clip-path)">
          <g id="trello-2" data-name="trello">
            <g id="Groupe_13" data-name="Groupe 13">
              <g id="Groupe_12" data-name="Groupe 12">
                <path id="Tracé_10" data-name="Tracé 10" d="M35.272,0H5.039A5.041,5.041,0,0,0,0,5.039V35.272a5.041,5.041,0,0,0,5.039,5.039H35.272a5.041,5.041,0,0,0,5.039-5.039V5.039A5.039,5.039,0,0,0,35.272,0ZM17.636,30.234a2.52,2.52,0,0,1-2.519,2.519H7.558a2.52,2.52,0,0,1-2.519-2.519V7.558A2.519,2.519,0,0,1,7.558,5.039h7.558a2.519,2.519,0,0,1,2.519,2.519ZM35.272,20.156a2.52,2.52,0,0,1-2.519,2.519H25.195a2.52,2.52,0,0,1-2.519-2.519V7.558a2.519,2.519,0,0,1,2.519-2.519h7.558a2.519,2.519,0,0,1,2.519,2.519Z" fill="#747474"/>
              </g>
            </g>
          </g>
        </g>
      </g>
    </g>
  </g>
</svg>
