<svg xmlns="http://www.w3.org/2000/svg" width="55" height="55" viewBox="0 0 55 55">
  <g id="Groupe_38" data-name="Groupe 38" transform="translate(-1831 -11)">
    <g id="Groupe_36" data-name="Groupe 36" transform="translate(1831.221 11.293)">
      <circle id="Ellipse_7" data-name="Ellipse 7" cx="27.5" cy="27.5" r="27.5" transform="translate(-0.221 -0.293)" fill="#e0e2e8"/>
    </g>
    <g id="settings" transform="translate(1843.409 23.409)">
      <path id="Tracé_35" data-name="Tracé 35" d="M28.913,11.974l-2.4-.3a12.046,12.046,0,0,0-.725-1.751l1.48-1.906a1.9,1.9,0,0,0-.156-2.523L25.108,3.482a1.9,1.9,0,0,0-2.53-.162l-1.9,1.48a12,12,0,0,0-1.753-.725l-.3-2.393A1.909,1.909,0,0,0,16.723,0H13.868a1.909,1.909,0,0,0-1.894,1.679l-.3,2.4A11.863,11.863,0,0,0,9.917,4.8l-1.9-1.48a1.9,1.9,0,0,0-2.523.156L3.482,5.482A1.9,1.9,0,0,0,3.32,8.014l1.48,1.9a11.905,11.905,0,0,0-.725,1.751l-2.393.3A1.909,1.909,0,0,0,0,13.868v2.855a1.909,1.909,0,0,0,1.679,1.894l2.4.3A12.045,12.045,0,0,0,4.8,20.673L3.32,22.579A1.9,1.9,0,0,0,3.476,25.1l2.008,2.008a1.9,1.9,0,0,0,2.53.161l1.9-1.48a11.768,11.768,0,0,0,1.751.725l.3,2.391a1.909,1.909,0,0,0,1.894,1.685h2.855a1.909,1.909,0,0,0,1.894-1.679l.3-2.4a12.046,12.046,0,0,0,1.751-.725l1.906,1.48a1.9,1.9,0,0,0,2.523-.156l2.008-2.008a1.9,1.9,0,0,0,.162-2.53l-1.48-1.9a11.768,11.768,0,0,0,.725-1.751l2.391-.3a1.909,1.909,0,0,0,1.683-1.894V13.868a1.907,1.907,0,0,0-1.677-1.894ZM15.3,21.669A6.373,6.373,0,1,1,21.669,15.3,6.38,6.38,0,0,1,15.3,21.669Z" transform="translate(0)" fill="#424242"/>
    </g>
  </g>
</svg>
