<svg id="page" xmlns="http://www.w3.org/2000/svg" width="45" height="45" viewBox="0 0 41.428 40.989">
  <g id="Groupe_31" data-name="Groupe 31" transform="translate(0 0)">
    <g id="Groupe_30" data-name="Groupe 30">
      <path id="Tracé_30" data-name="Tracé 30" d="M40.058,2.048H8.329a1.24,1.24,0,0,0-1.26,1.26L6.8,30.982H1.26A1.24,1.24,0,0,0,0,32.242v3.726a7.078,7.078,0,0,0,6.85,7.069H34.359a7.086,7.086,0,0,0,7.069-7.069V3.308A1.336,1.336,0,0,0,40.058,2.048ZM24.933,9.61v2.576H13.426L13.371,9.61H24.933ZM7.069,40.571a4.514,4.514,0,0,1-4.493-4.493V33.612H27.235v2.466a6.689,6.689,0,0,0,1.644,4.493ZM34.249,25.5H13.426V22.926H34.249Zm0-6.631H13.426V16.3H34.249Z" transform="translate(0 -2.048)" fill="#747474"/>
    </g>
  </g>
</svg>
