<svg xmlns="http://www.w3.org/2000/svg" width="27.7" height="23.049" viewBox="0 0 27.7 23.049">
  <g id="like" transform="translate(0 -30)">
    <g id="Groupe_110" data-name="Groupe 110" transform="translate(0 30)">
      <g id="Groupe_109" data-name="Groupe 109">
        <path id="Tracé_51" data-name="Tracé 51" d="M20.343,30a6.817,6.817,0,0,0-4.1,1.334,8.926,8.926,0,0,0-2.4,2.716,8.926,8.926,0,0,0-2.4-2.716A6.817,6.817,0,0,0,7.358,30,7.278,7.278,0,0,0,0,37.522c0,4.633,3.946,7.8,9.921,12.6,1.015.815,2.164,1.739,3.36,2.724a.906.906,0,0,0,1.14,0c1.2-.985,2.345-1.909,3.36-2.724,5.974-4.8,9.92-7.968,9.92-12.6A7.278,7.278,0,0,0,20.343,30Z" transform="translate(0 -30)" fill="#ff4848"/>
      </g>
    </g>
  </g>
</svg>
