<svg xmlns="http://www.w3.org/2000/svg" width="26.115" height="28.215" viewBox="0 0 26.115 28.215">
  <path id="share" d="M29.248,17.568a5.314,5.314,0,0,0-4.1,1.927L18.8,15.886a5.312,5.312,0,0,0,0-3.556l6.357-3.61A5.317,5.317,0,1,0,24.232,7.1l-6.357,3.61a5.323,5.323,0,1,0,0,6.793l6.357,3.609a5.322,5.322,0,1,0,5.017-3.546Zm0-15.705a3.461,3.461,0,1,1-3.46,3.46A3.464,3.464,0,0,1,29.248,1.863ZM13.78,17.568a3.46,3.46,0,1,1,3.46-3.46A3.465,3.465,0,0,1,13.78,17.568Zm15.468,8.784a3.461,3.461,0,1,1,3.46-3.46A3.464,3.464,0,0,1,29.248,26.352Z" transform="translate(-8.456)" fill="#9a9a9a"/>
</svg>
