<svg id="trello" xmlns="http://www.w3.org/2000/svg" xmlns:xlink="http://www.w3.org/1999/xlink" width="45" height="45" viewBox="0 0 524.998 524.998">
  <defs>
    <clipPath id="clip-path">
      <path id="Tracé_9" data-name="Tracé 9" d="M459.372,0H65.626A65.652,65.652,0,0,0,0,65.626V459.372A65.652,65.652,0,0,0,65.626,525H459.372A65.652,65.652,0,0,0,525,459.372V65.626A65.626,65.626,0,0,0,459.372,0ZM229.686,393.759a32.82,32.82,0,0,1-32.807,32.807H98.433a32.82,32.82,0,0,1-32.807-32.807V98.433A32.807,32.807,0,0,1,98.433,65.626h98.433a32.807,32.807,0,0,1,32.807,32.807ZM459.372,262.506a32.82,32.82,0,0,1-32.807,32.807H328.132a32.82,32.82,0,0,1-32.807-32.807V98.433a32.807,32.807,0,0,1,32.807-32.807h98.433a32.807,32.807,0,0,1,32.807,32.807Z" fill="#040491"/>
    </clipPath>
  </defs>
  <g id="Groupe_10" data-name="Groupe 10">
    <g id="Groupe_9" data-name="Groupe 9">
      <g id="Groupe_de_masques_1" data-name="Groupe de masques 1" clip-path="url(#clip-path)">
        <g id="trello-2" data-name="trello">
          <g id="Groupe_13" data-name="Groupe 13">
            <g id="Groupe_12" data-name="Groupe 12">
              <path id="Tracé_10" data-name="Tracé 10" d="M459.372,0H65.626A65.652,65.652,0,0,0,0,65.626V459.372A65.652,65.652,0,0,0,65.626,525H459.372A65.652,65.652,0,0,0,525,459.372V65.626A65.626,65.626,0,0,0,459.372,0ZM229.686,393.759a32.82,32.82,0,0,1-32.807,32.807H98.433a32.82,32.82,0,0,1-32.807-32.807V98.433A32.807,32.807,0,0,1,98.433,65.626h98.433a32.807,32.807,0,0,1,32.807,32.807ZM459.372,262.506a32.82,32.82,0,0,1-32.807,32.807H328.132a32.82,32.82,0,0,1-32.807-32.807V98.433a32.807,32.807,0,0,1,32.807-32.807h98.433a32.807,32.807,0,0,1,32.807,32.807Z" fill="#040491"/>
            </g>
          </g>
        </g>
      </g>
    </g>
  </g>
</svg>
