<svg xmlns="http://www.w3.org/2000/svg" width="45" height="45" viewBox="0 0 456.141 346.694">
  <g id="message" transform="translate(0 -0.004)">
    <path id="Tracé_17" data-name="Tracé 17" d="M316.355,59.5H44.142A44.187,44.187,0,0,0,0,103.606V261.788a44.187,44.187,0,0,0,44.142,44.142h39.62l.844,39.835a14.726,14.726,0,0,0,23.574,11.442l68.04-51.295H316.355A44.187,44.187,0,0,0,360.5,261.77V103.606A44.187,44.187,0,0,0,316.355,59.5Zm-85.53,175.618H129.672a14.717,14.717,0,0,1,0-29.425H230.825a14.717,14.717,0,0,1,0,29.425Zm26.67-64.342H103a14.717,14.717,0,1,1,0-29.425H257.5a14.717,14.717,0,1,1,0,29.425ZM456.141,195.57V316.96A44.142,44.142,0,0,1,412,361.1H372.316l-.8,30.726A14.735,14.735,0,0,1,356.8,406.186c-5.815,0-1.57,1.66-76.2-45.058H216.117a43.972,43.972,0,0,1-29.336-11.19,14.717,14.717,0,0,1,9.746-25.71h133.89a51.689,51.689,0,0,0,51.689-51.689V166.145a14.717,14.717,0,0,1,14.717-14.717H412A44.142,44.142,0,0,1,456.141,195.57Z" transform="translate(0 -59.496)" fill="#040491"/>
  </g>
</svg>
