<svg id="ic_menu_mobile" xmlns="http://www.w3.org/2000/svg" width="45" height="45" viewBox="0 0 384 286.942">
  <path id="Tracé_5" data-name="Tracé 5" d="M368,164.278H16c-8.832,0-16-9.321-16-20.805s7.168-20.8,16-20.8H368c8.832,0,16,9.321,16,20.8S376.832,164.278,368,164.278Zm0,0" fill="#040491"/>
  <path id="Tracé_6" data-name="Tracé 6" d="M368,41.61H16c-8.832,0-16-9.321-16-20.805S7.168,0,16,0H368c8.832,0,16,9.321,16,20.805S376.832,41.61,368,41.61Zm0,0" fill="#040491"/>
  <path id="Tracé_7" data-name="Tracé 7" d="M368,286.942H16c-8.832,0-16-9.321-16-20.8s7.168-20.8,16-20.8H368c8.832,0,16,9.321,16,20.8S376.832,286.942,368,286.942Zm0,0" fill="#040491"/>
</svg>
